7 .125 
6 .125 
7 .125 
6 .125 
7 .125 
2 .125 
5 .125 
3 .125 
0 .25  

-100 .125

-9 .125
-5 .125
  0 .125
  2 .25

-100 .125

-5  .125
-1  .125
 2  .125
 3  .25

-100 .125

-5 .125
7 .125 
6 .125 
7 .125 
6 .125 
7 .125 
2 .125 
5 .125 
3 .125 
0 .25  

-100 .125

 -9 .125
 -5 .125
  0 .125
  2 .25

-100 .125 

 -5 .125
 -9 .125
  2 .125
  0 .5






7 .125 
6 .125 
7 .125 
6 .125 
7 .125 
2 .125 
5 .125 
3 .125 
0 .25  

-100 .125

 -9 .125
 -5 .125
  0 .125
  2 .25

-100 .125

-5  .125
-1  .125
 2  .125
 3  .25

-100 .125

-5 .125
7 .125 
6 .125 
7 .125 
6 .125 
7 .125 
2 .125 
5 .125 
3 .125 
0 .25  

-100 .125

 -9 .125
 -5 .125
  0 .125
  2 .25

-100 .125 

 -5 .125
 -9 .125
  2 .125
  0 1
