-5 .1
0 .1
2 .1
3 .1
5 .1
1 .05
2 .2
-2 .15
0  1

-5 -1 .1
0  3 .1
2 5 .1
3 7 .1
5 8 .1
1 .05
2 5 .2
-2 2 .15
0 3 1

-4 .1
1 .1
3 .1
4 .1
6 .1
2 .05
3 .2
-1 .15
1  1

-5 4 .1
0 1 .1
2 3 .1
3 4 .1
5 6 .1
1  2 .05
2 3 .2
-2 -1 .15
0 1  1

0  7 .1
0  12 .1
0  14 .1
2  15 .1
2  17 .1
3 3 13 .07
-5 14 .2
-5 10 .15
 0 12 1

 -5  7 .12
 0  12 .12
 -2  14 .12
 -5  15 .12
 -6  17 .12
  -7 13 .1
 -7  14  .22
 -5 10 .15
  -12 3 7 12 2
